<?xml version="1.0" encoding="utf-8"?>
<!-- Generator: Adobe Illustrator 21.0.0, SVG Export Plug-In . SVG Version: 6.00 Build 0)  -->
<svg version="1.1" id="Слой_1" xmlns="http://www.w3.org/2000/svg" xmlns:xlink="http://www.w3.org/1999/xlink" x="0px" y="0px"
	 viewBox="0 0 120 120" style="enable-background:new 0 0 120 120;" xml:space="preserve">
<style type="text/css">
	.st0{fill:#E0E5E6;}
	.st1{font-family:'Arial-Black';}
	.st2{font-size:26.9407px;}
	.st3{fill:#3497DA;}
</style>
<text transform="matrix(1 0 0 1 20.2336 81.7393)" class="st0 st1 st2">PAGE</text>
<text transform="matrix(1 0 0 1 33.0461 53.1143)" class="st3 st1 st2">404</text>
</svg>
