<?xml version="1.0" encoding="utf-8"?>
<!-- Generator: Adobe Illustrator 21.0.0, SVG Export Plug-In . SVG Version: 6.00 Build 0)  -->
<svg version="1.1" id="Слой_1" xmlns="http://www.w3.org/2000/svg" xmlns:xlink="http://www.w3.org/1999/xlink" x="0px" y="0px"
	 viewBox="0 0 120 120" style="enable-background:new 0 0 120 120;" xml:space="preserve">
<style type="text/css">
	.st0{fill:#E0E5E6;}
	.st1{fill:#BDC3C7;}
	.st2{fill:#F2B749;}
	.st3{fill:#3497DA;}
</style>
<path class="st0" d="M28,107h84v8H28V107z"/>
<path class="st0" d="M28,91h92v8H28V91z"/>
<path class="st1" d="M28,73h70v8H28V73z"/>
<path class="st2" d="M18,86H0V68h18V86z M4,72v10h10V72H4z"/>
<path class="st0" d="M28,43h84v8H28V43z"/>
<path class="st0" d="M28,27h92v8H28V27z"/>
<path class="st1" d="M28,9h70v8H28V9z"/>
<path class="st3" d="M18,22H0V4h18V22z M4,8v10h10V8H4z"/>
</svg>
