<?xml version="1.0" encoding="utf-8"?>
<!-- Generator: Adobe Illustrator 21.0.0, SVG Export Plug-In . SVG Version: 6.00 Build 0)  -->
<svg version="1.1" xmlns="http://www.w3.org/2000/svg" xmlns:xlink="http://www.w3.org/1999/xlink" x="0px" y="0px"
	 viewBox="0 0 120 120" style="enable-background:new 0 0 120 120;" xml:space="preserve">
<style type="text/css">
	.st0{fill:#E0E5E6;}
	.st1{fill:none;stroke:#E0E5E6;stroke-width:5;stroke-miterlimit:10;}
</style>
<g id="Слой_1">
	<rect x="10" y="59" class="st0" width="34.8" height="4"/>
	<rect x="10" y="66" class="st0" width="22" height="2"/>
</g>
<g id="Слой_2">
	<rect x="2.5" y="21.5" class="st1" width="114.9" height="59.4"/>
</g>
</svg>
